com/orderendpoint/entities/Phone$PhoneBuilder.class
com/orderendpoint/entities/PhoneList.class
com/orderendpoint/utils/HttpUtils.class
com/orderendpoint/entities/Customer$CustomerBuilder.class
com/orderendpoint/services/PhoneService.class
com/orderendpoint/entities/PhoneList$PhoneListBuilder.class
com/orderendpoint/entities/Order.class
com/orderendpoint/entities/Phone.class
com/orderendpoint/entities/Customer.class
OrderEndpoint.class
com/orderendpoint/services/OrderService.class
com/orderendpoint/entities/Order$OrderBuilder.class
